-- Merging decision tree log ---
manifest
ADDED from C:\Users\MaltiDevnani\AndroidStudioProjects\MiMCoups_Live\miMCoups\src\main\AndroidManifest.xml:2:1-212:12
	package
		ADDED from C:\Users\MaltiDevnani\AndroidStudioProjects\MiMCoups_Live\miMCoups\src\main\AndroidManifest.xml:3:5-27
		INJECTED from C:\Users\MaltiDevnani\AndroidStudioProjects\MiMCoups_Live\miMCoups\src\main\AndroidManifest.xml
		INJECTED from C:\Users\MaltiDevnani\AndroidStudioProjects\MiMCoups_Live\miMCoups\src\main\AndroidManifest.xml
	android:versionName
		ADDED from C:\Users\MaltiDevnani\AndroidStudioProjects\MiMCoups_Live\miMCoups\src\main\AndroidManifest.xml:5:5-30
		INJECTED from C:\Users\MaltiDevnani\AndroidStudioProjects\MiMCoups_Live\miMCoups\src\main\AndroidManifest.xml
		INJECTED from C:\Users\MaltiDevnani\AndroidStudioProjects\MiMCoups_Live\miMCoups\src\main\AndroidManifest.xml
	android:versionCode
		ADDED from C:\Users\MaltiDevnani\AndroidStudioProjects\MiMCoups_Live\miMCoups\src\main\AndroidManifest.xml:4:5-28
		INJECTED from C:\Users\MaltiDevnani\AndroidStudioProjects\MiMCoups_Live\miMCoups\src\main\AndroidManifest.xml
		INJECTED from C:\Users\MaltiDevnani\AndroidStudioProjects\MiMCoups_Live\miMCoups\src\main\AndroidManifest.xml
	xmlns:android
		ADDED from C:\Users\MaltiDevnani\AndroidStudioProjects\MiMCoups_Live\miMCoups\src\main\AndroidManifest.xml:2:11-69
uses-sdk
ADDED from C:\Users\MaltiDevnani\AndroidStudioProjects\MiMCoups_Live\miMCoups\src\main\AndroidManifest.xml:7:5-9:41
MERGED from [com.android.support:multidex:1.0.1] C:\Users\MaltiDevnani\.android\build-cache\89711f28eabfe00f22876cb2bcc05d5ce16d9c84\output\AndroidManifest.xml:18:5-42
MERGED from [MiMCoups_Live:facebookSDK:unspecified] C:\Users\MaltiDevnani\AndroidStudioProjects\MiMCoups_Live\facebookSDK\build\intermediates\bundles\default\AndroidManifest.xml:20:5-22:40
MERGED from [MiMCoups_Live:library:unspecified] C:\Users\MaltiDevnani\AndroidStudioProjects\MiMCoups_Live\library\build\intermediates\bundles\default\AndroidManifest.xml:5:5-7:41
MERGED from [com.android.support:appcompat-v7:22.2.1] C:\Users\MaltiDevnani\.android\build-cache\94b5107b4d47778e016df26e6a980d11a476dea5\output\AndroidManifest.xml:20:5-43
MERGED from [com.google.android.gms:play-services:4.3.23] C:\Users\MaltiDevnani\.android\build-cache\7a4dcdaa70b29d620e88e250560e16e2934315fc\output\AndroidManifest.xml:7:5-42
MERGED from [com.stripe:stripe-android:3.0.1] C:\Users\MaltiDevnani\.android\build-cache\7060893c0d0b49ba8362a6914c5889ab8891277a\output\AndroidManifest.xml:7:5-9:41
MERGED from [com.android.support:support-v4:25.1.1] C:\Users\MaltiDevnani\.android\build-cache\75351634bcc39f124c1651c68c0ab8eba6d8954a\output\AndroidManifest.xml:21:5-23:54
MERGED from [com.android.support:support-fragment:25.1.1] C:\Users\MaltiDevnani\.android\build-cache\2851891b02688fb2e717335a03e88809445442ac\output\AndroidManifest.xml:21:5-23:60
MERGED from [com.android.support:support-media-compat:25.1.1] C:\Users\MaltiDevnani\.android\build-cache\a644f534fdb4b6794e8864ac5362d346cd63c2d0\output\AndroidManifest.xml:21:5-23:63
MERGED from [com.android.support:support-core-ui:25.1.1] C:\Users\MaltiDevnani\.android\build-cache\9cd7b25e460d127254b83a48e2c46c8aed428556\output\AndroidManifest.xml:21:5-23:58
MERGED from [com.android.support:support-core-utils:25.1.1] C:\Users\MaltiDevnani\.android\build-cache\a94b708e995220dc86113cc445b7921b208bf438\output\AndroidManifest.xml:21:5-23:61
MERGED from [com.android.support:support-compat:25.1.1] C:\Users\MaltiDevnani\.android\build-cache\e420c701d93be78ba33d8d26aa1606f7fc967007\output\AndroidManifest.xml:21:5-23:58
MERGED from [com.android.support.constraint:constraint-layout:1.0.0-beta3] C:\Users\MaltiDevnani\.android\build-cache\64b29ab5627fefaa80db4958fd5ab979ec9b1d9e\output\AndroidManifest.xml:5:5-7:41
	tools:overrideLibrary
		ADDED from [com.android.support:support-v4:25.1.1] C:\Users\MaltiDevnani\.android\build-cache\75351634bcc39f124c1651c68c0ab8eba6d8954a\output\AndroidManifest.xml:23:9-51
	android:targetSdkVersion
		ADDED from C:\Users\MaltiDevnani\AndroidStudioProjects\MiMCoups_Live\miMCoups\src\main\AndroidManifest.xml:9:9-38
		INJECTED from C:\Users\MaltiDevnani\AndroidStudioProjects\MiMCoups_Live\miMCoups\src\main\AndroidManifest.xml
		INJECTED from C:\Users\MaltiDevnani\AndroidStudioProjects\MiMCoups_Live\miMCoups\src\main\AndroidManifest.xml
	android:minSdkVersion
		ADDED from C:\Users\MaltiDevnani\AndroidStudioProjects\MiMCoups_Live\miMCoups\src\main\AndroidManifest.xml:8:9-35
		INJECTED from C:\Users\MaltiDevnani\AndroidStudioProjects\MiMCoups_Live\miMCoups\src\main\AndroidManifest.xml
		INJECTED from C:\Users\MaltiDevnani\AndroidStudioProjects\MiMCoups_Live\miMCoups\src\main\AndroidManifest.xml
uses-permission#android.permission.ACCESS_NETWORK_STATE
ADDED from C:\Users\MaltiDevnani\AndroidStudioProjects\MiMCoups_Live\miMCoups\src\main\AndroidManifest.xml:11:5-79
	android:name
		ADDED from C:\Users\MaltiDevnani\AndroidStudioProjects\MiMCoups_Live\miMCoups\src\main\AndroidManifest.xml:11:22-76
uses-permission#android.permission.ACCESS_WIFI_STATE
ADDED from C:\Users\MaltiDevnani\AndroidStudioProjects\MiMCoups_Live\miMCoups\src\main\AndroidManifest.xml:12:5-76
	android:name
		ADDED from C:\Users\MaltiDevnani\AndroidStudioProjects\MiMCoups_Live\miMCoups\src\main\AndroidManifest.xml:12:22-73
uses-permission#android.permission.ACCESS_COARSE_LOCATION
ADDED from C:\Users\MaltiDevnani\AndroidStudioProjects\MiMCoups_Live\miMCoups\src\main\AndroidManifest.xml:13:5-81
	android:name
		ADDED from C:\Users\MaltiDevnani\AndroidStudioProjects\MiMCoups_Live\miMCoups\src\main\AndroidManifest.xml:13:22-78
uses-permission#android.permission.ACCESS_FINE_LOCATION
ADDED from C:\Users\MaltiDevnani\AndroidStudioProjects\MiMCoups_Live\miMCoups\src\main\AndroidManifest.xml:14:5-79
	android:name
		ADDED from C:\Users\MaltiDevnani\AndroidStudioProjects\MiMCoups_Live\miMCoups\src\main\AndroidManifest.xml:14:22-76
uses-permission#android.permission.READ_PHONE_STATE
ADDED from C:\Users\MaltiDevnani\AndroidStudioProjects\MiMCoups_Live\miMCoups\src\main\AndroidManifest.xml:15:5-75
	android:name
		ADDED from C:\Users\MaltiDevnani\AndroidStudioProjects\MiMCoups_Live\miMCoups\src\main\AndroidManifest.xml:15:22-72
uses-permission#android.permission.CHANGE_WIFI_MULTICAST_STATE
ADDED from C:\Users\MaltiDevnani\AndroidStudioProjects\MiMCoups_Live\miMCoups\src\main\AndroidManifest.xml:16:5-86
	android:name
		ADDED from C:\Users\MaltiDevnani\AndroidStudioProjects\MiMCoups_Live\miMCoups\src\main\AndroidManifest.xml:16:22-83
uses-permission#android.permission.INTERNET
ADDED from C:\Users\MaltiDevnani\AndroidStudioProjects\MiMCoups_Live\miMCoups\src\main\AndroidManifest.xml:17:5-67
	android:name
		ADDED from C:\Users\MaltiDevnani\AndroidStudioProjects\MiMCoups_Live\miMCoups\src\main\AndroidManifest.xml:17:22-64
uses-permission#android.permission.WAKE_LOCK
ADDED from C:\Users\MaltiDevnani\AndroidStudioProjects\MiMCoups_Live\miMCoups\src\main\AndroidManifest.xml:18:5-68
	android:name
		ADDED from C:\Users\MaltiDevnani\AndroidStudioProjects\MiMCoups_Live\miMCoups\src\main\AndroidManifest.xml:18:22-65
uses-permission#com.google.android.providers.gsf.permission.READ_GSERVICES
ADDED from C:\Users\MaltiDevnani\AndroidStudioProjects\MiMCoups_Live\miMCoups\src\main\AndroidManifest.xml:19:5-98
	android:name
		ADDED from C:\Users\MaltiDevnani\AndroidStudioProjects\MiMCoups_Live\miMCoups\src\main\AndroidManifest.xml:19:22-95
uses-permission#android.permission.WRITE_EXTERNAL_STORAGE
ADDED from C:\Users\MaltiDevnani\AndroidStudioProjects\MiMCoups_Live\miMCoups\src\main\AndroidManifest.xml:20:5-81
	android:name
		ADDED from C:\Users\MaltiDevnani\AndroidStudioProjects\MiMCoups_Live\miMCoups\src\main\AndroidManifest.xml:20:22-78
uses-permission#android.permission.GET_ACCOUNTS
ADDED from C:\Users\MaltiDevnani\AndroidStudioProjects\MiMCoups_Live\miMCoups\src\main\AndroidManifest.xml:21:5-71
	android:name
		ADDED from C:\Users\MaltiDevnani\AndroidStudioProjects\MiMCoups_Live\miMCoups\src\main\AndroidManifest.xml:21:22-68
uses-permission#android.permission.USE_CREDENTIALS
ADDED from C:\Users\MaltiDevnani\AndroidStudioProjects\MiMCoups_Live\miMCoups\src\main\AndroidManifest.xml:22:5-74
	android:name
		ADDED from C:\Users\MaltiDevnani\AndroidStudioProjects\MiMCoups_Live\miMCoups\src\main\AndroidManifest.xml:22:22-71
uses-permission#android.permission.VIBRATE
ADDED from C:\Users\MaltiDevnani\AndroidStudioProjects\MiMCoups_Live\miMCoups\src\main\AndroidManifest.xml:24:5-66
	android:name
		ADDED from C:\Users\MaltiDevnani\AndroidStudioProjects\MiMCoups_Live\miMCoups\src\main\AndroidManifest.xml:24:22-63
uses-permission#com.mimcoups.permission.C2D_MESSAGE
ADDED from C:\Users\MaltiDevnani\AndroidStudioProjects\MiMCoups_Live\miMCoups\src\main\AndroidManifest.xml:25:5-75
	android:name
		ADDED from C:\Users\MaltiDevnani\AndroidStudioProjects\MiMCoups_Live\miMCoups\src\main\AndroidManifest.xml:25:22-72
uses-permission#com.google.android.c2dm.permission.RECEIVE
ADDED from C:\Users\MaltiDevnani\AndroidStudioProjects\MiMCoups_Live\miMCoups\src\main\AndroidManifest.xml:26:5-82
	android:name
		ADDED from C:\Users\MaltiDevnani\AndroidStudioProjects\MiMCoups_Live\miMCoups\src\main\AndroidManifest.xml:26:22-79
uses-permission#android.permission.GET_TASKS
ADDED from C:\Users\MaltiDevnani\AndroidStudioProjects\MiMCoups_Live\miMCoups\src\main\AndroidManifest.xml:27:5-68
	android:name
		ADDED from C:\Users\MaltiDevnani\AndroidStudioProjects\MiMCoups_Live\miMCoups\src\main\AndroidManifest.xml:27:22-65
uses-permission#android.permission.CAMERA
ADDED from C:\Users\MaltiDevnani\AndroidStudioProjects\MiMCoups_Live\miMCoups\src\main\AndroidManifest.xml:28:5-65
	android:name
		ADDED from C:\Users\MaltiDevnani\AndroidStudioProjects\MiMCoups_Live\miMCoups\src\main\AndroidManifest.xml:28:22-62
uses-permission#com.shop.shoppinglist.permission.MAPS_RECEIVE
ADDED from C:\Users\MaltiDevnani\AndroidStudioProjects\MiMCoups_Live\miMCoups\src\main\AndroidManifest.xml:29:5-85
	android:name
		ADDED from C:\Users\MaltiDevnani\AndroidStudioProjects\MiMCoups_Live\miMCoups\src\main\AndroidManifest.xml:29:22-82
permission#com.shop.shoppinglist.permission.MAPS_RECEIVE
ADDED from C:\Users\MaltiDevnani\AndroidStudioProjects\MiMCoups_Live\miMCoups\src\main\AndroidManifest.xml:31:5-33:47
	android:protectionLevel
		ADDED from C:\Users\MaltiDevnani\AndroidStudioProjects\MiMCoups_Live\miMCoups\src\main\AndroidManifest.xml:33:9-44
	android:name
		ADDED from C:\Users\MaltiDevnani\AndroidStudioProjects\MiMCoups_Live\miMCoups\src\main\AndroidManifest.xml:32:9-69
uses-feature#android.hardware.camera
ADDED from C:\Users\MaltiDevnani\AndroidStudioProjects\MiMCoups_Live\miMCoups\src\main\AndroidManifest.xml:35:5-37:36
	android:required
		ADDED from C:\Users\MaltiDevnani\AndroidStudioProjects\MiMCoups_Live\miMCoups\src\main\AndroidManifest.xml:37:9-33
	android:name
		ADDED from C:\Users\MaltiDevnani\AndroidStudioProjects\MiMCoups_Live\miMCoups\src\main\AndroidManifest.xml:36:9-47
uses-feature#0x00020000
ADDED from C:\Users\MaltiDevnani\AndroidStudioProjects\MiMCoups_Live\miMCoups\src\main\AndroidManifest.xml:38:5-40:35
	android:glEsVersion
		ADDED from C:\Users\MaltiDevnani\AndroidStudioProjects\MiMCoups_Live\miMCoups\src\main\AndroidManifest.xml:39:9-41
	android:required
		ADDED from C:\Users\MaltiDevnani\AndroidStudioProjects\MiMCoups_Live\miMCoups\src\main\AndroidManifest.xml:40:9-32
permission#com.mimcoups.permission.C2D_MESSAGE
ADDED from C:\Users\MaltiDevnani\AndroidStudioProjects\MiMCoups_Live\miMCoups\src\main\AndroidManifest.xml:42:5-44:47
	android:protectionLevel
		ADDED from C:\Users\MaltiDevnani\AndroidStudioProjects\MiMCoups_Live\miMCoups\src\main\AndroidManifest.xml:44:9-44
	android:name
		ADDED from C:\Users\MaltiDevnani\AndroidStudioProjects\MiMCoups_Live\miMCoups\src\main\AndroidManifest.xml:43:9-59
uses-permission#android.permission.GET_PACKAGE_SIZE
ADDED from C:\Users\MaltiDevnani\AndroidStudioProjects\MiMCoups_Live\miMCoups\src\main\AndroidManifest.xml:46:5-75
	android:name
		ADDED from C:\Users\MaltiDevnani\AndroidStudioProjects\MiMCoups_Live\miMCoups\src\main\AndroidManifest.xml:46:22-72
uses-permission#android.permission.READ_EXTERNAL_STORAGE
ADDED from C:\Users\MaltiDevnani\AndroidStudioProjects\MiMCoups_Live\miMCoups\src\main\AndroidManifest.xml:47:5-80
	android:name
		ADDED from C:\Users\MaltiDevnani\AndroidStudioProjects\MiMCoups_Live\miMCoups\src\main\AndroidManifest.xml:47:22-77
application
ADDED from C:\Users\MaltiDevnani\AndroidStudioProjects\MiMCoups_Live\miMCoups\src\main\AndroidManifest.xml:49:5-210:19
MERGED from [MiMCoups_Live:facebookSDK:unspecified] C:\Users\MaltiDevnani\AndroidStudioProjects\MiMCoups_Live\facebookSDK\build\intermediates\bundles\default\AndroidManifest.xml:24:5-20
MERGED from [MiMCoups_Live:library:unspecified] C:\Users\MaltiDevnani\AndroidStudioProjects\MiMCoups_Live\library\build\intermediates\bundles\default\AndroidManifest.xml:9:5-20
MERGED from [com.android.support:appcompat-v7:22.2.1] C:\Users\MaltiDevnani\.android\build-cache\94b5107b4d47778e016df26e6a980d11a476dea5\output\AndroidManifest.xml:22:5-20
MERGED from [com.android.support:support-v4:25.1.1] C:\Users\MaltiDevnani\.android\build-cache\75351634bcc39f124c1651c68c0ab8eba6d8954a\output\AndroidManifest.xml:25:5-20
MERGED from [com.android.support:support-fragment:25.1.1] C:\Users\MaltiDevnani\.android\build-cache\2851891b02688fb2e717335a03e88809445442ac\output\AndroidManifest.xml:25:5-20
MERGED from [com.android.support:support-media-compat:25.1.1] C:\Users\MaltiDevnani\.android\build-cache\a644f534fdb4b6794e8864ac5362d346cd63c2d0\output\AndroidManifest.xml:25:5-20
MERGED from [com.android.support:support-core-ui:25.1.1] C:\Users\MaltiDevnani\.android\build-cache\9cd7b25e460d127254b83a48e2c46c8aed428556\output\AndroidManifest.xml:25:5-20
MERGED from [com.android.support:support-core-utils:25.1.1] C:\Users\MaltiDevnani\.android\build-cache\a94b708e995220dc86113cc445b7921b208bf438\output\AndroidManifest.xml:25:5-20
MERGED from [com.android.support:support-compat:25.1.1] C:\Users\MaltiDevnani\.android\build-cache\e420c701d93be78ba33d8d26aa1606f7fc967007\output\AndroidManifest.xml:25:5-20
MERGED from [com.android.support.constraint:constraint-layout:1.0.0-beta3] C:\Users\MaltiDevnani\.android\build-cache\64b29ab5627fefaa80db4958fd5ab979ec9b1d9e\output\AndroidManifest.xml:9:5-20
	android:label
		ADDED from C:\Users\MaltiDevnani\AndroidStudioProjects\MiMCoups_Live\miMCoups\src\main\AndroidManifest.xml:53:9-36
	android:allowBackup
		ADDED from C:\Users\MaltiDevnani\AndroidStudioProjects\MiMCoups_Live\miMCoups\src\main\AndroidManifest.xml:51:9-35
	android:icon
		ADDED from C:\Users\MaltiDevnani\AndroidStudioProjects\MiMCoups_Live\miMCoups\src\main\AndroidManifest.xml:52:9-42
	android:largeHeap
		ADDED from C:\Users\MaltiDevnani\AndroidStudioProjects\MiMCoups_Live\miMCoups\src\main\AndroidManifest.xml:54:9-33
	android:theme
		ADDED from C:\Users\MaltiDevnani\AndroidStudioProjects\MiMCoups_Live\miMCoups\src\main\AndroidManifest.xml:55:9-40
	android:name
		ADDED from C:\Users\MaltiDevnani\AndroidStudioProjects\MiMCoups_Live\miMCoups\src\main\AndroidManifest.xml:50:9-56
activity#com.mimcoups.Consumer.SplashActivity
ADDED from C:\Users\MaltiDevnani\AndroidStudioProjects\MiMCoups_Live\miMCoups\src\main\AndroidManifest.xml:56:9-66:20
	android:screenOrientation
		ADDED from C:\Users\MaltiDevnani\AndroidStudioProjects\MiMCoups_Live\miMCoups\src\main\AndroidManifest.xml:59:13-49
	android:label
		ADDED from C:\Users\MaltiDevnani\AndroidStudioProjects\MiMCoups_Live\miMCoups\src\main\AndroidManifest.xml:58:13-45
	android:windowSoftInputMode
		ADDED from C:\Users\MaltiDevnani\AndroidStudioProjects\MiMCoups_Live\miMCoups\src\main\AndroidManifest.xml:60:13-52
	android:name
		ADDED from C:\Users\MaltiDevnani\AndroidStudioProjects\MiMCoups_Live\miMCoups\src\main\AndroidManifest.xml:57:13-52
intent-filter#android.intent.action.MAIN+android.intent.category.LAUNCHER
ADDED from C:\Users\MaltiDevnani\AndroidStudioProjects\MiMCoups_Live\miMCoups\src\main\AndroidManifest.xml:61:13-65:29
action#android.intent.action.MAIN
ADDED from C:\Users\MaltiDevnani\AndroidStudioProjects\MiMCoups_Live\miMCoups\src\main\AndroidManifest.xml:62:17-69
	android:name
		ADDED from C:\Users\MaltiDevnani\AndroidStudioProjects\MiMCoups_Live\miMCoups\src\main\AndroidManifest.xml:62:25-66
category#android.intent.category.LAUNCHER
ADDED from C:\Users\MaltiDevnani\AndroidStudioProjects\MiMCoups_Live\miMCoups\src\main\AndroidManifest.xml:64:17-77
	android:name
		ADDED from C:\Users\MaltiDevnani\AndroidStudioProjects\MiMCoups_Live\miMCoups\src\main\AndroidManifest.xml:64:27-74
activity#com.mimcoups.Consumer.RegisterActivity
ADDED from C:\Users\MaltiDevnani\AndroidStudioProjects\MiMCoups_Live\miMCoups\src\main\AndroidManifest.xml:67:9-69:61
	android:screenOrientation
		ADDED from C:\Users\MaltiDevnani\AndroidStudioProjects\MiMCoups_Live\miMCoups\src\main\AndroidManifest.xml:69:13-49
	android:name
		ADDED from C:\Users\MaltiDevnani\AndroidStudioProjects\MiMCoups_Live\miMCoups\src\main\AndroidManifest.xml:68:13-54
activity#com.mimcoups.Consumer.DeelZoomActivity
ADDED from C:\Users\MaltiDevnani\AndroidStudioProjects\MiMCoups_Live\miMCoups\src\main\AndroidManifest.xml:70:9-72:61
	android:screenOrientation
		ADDED from C:\Users\MaltiDevnani\AndroidStudioProjects\MiMCoups_Live\miMCoups\src\main\AndroidManifest.xml:72:13-49
	android:name
		ADDED from C:\Users\MaltiDevnani\AndroidStudioProjects\MiMCoups_Live\miMCoups\src\main\AndroidManifest.xml:71:13-54
activity#com.mimcoups.Consumer.DeelFeedActivity
ADDED from C:\Users\MaltiDevnani\AndroidStudioProjects\MiMCoups_Live\miMCoups\src\main\AndroidManifest.xml:73:9-77:58
	android:screenOrientation
		ADDED from C:\Users\MaltiDevnani\AndroidStudioProjects\MiMCoups_Live\miMCoups\src\main\AndroidManifest.xml:76:13-49
	android:launchMode
		ADDED from C:\Users\MaltiDevnani\AndroidStudioProjects\MiMCoups_Live\miMCoups\src\main\AndroidManifest.xml:75:13-43
	android:windowSoftInputMode
		ADDED from C:\Users\MaltiDevnani\AndroidStudioProjects\MiMCoups_Live\miMCoups\src\main\AndroidManifest.xml:77:13-55
	android:name
		ADDED from C:\Users\MaltiDevnani\AndroidStudioProjects\MiMCoups_Live\miMCoups\src\main\AndroidManifest.xml:74:13-54
activity#com.mimcoups.Consumer.Facebook.FacebookLoginActivity
ADDED from C:\Users\MaltiDevnani\AndroidStudioProjects\MiMCoups_Live\miMCoups\src\main\AndroidManifest.xml:78:9-81:65
	android:screenOrientation
		ADDED from C:\Users\MaltiDevnani\AndroidStudioProjects\MiMCoups_Live\miMCoups\src\main\AndroidManifest.xml:80:13-49
	android:theme
		ADDED from C:\Users\MaltiDevnani\AndroidStudioProjects\MiMCoups_Live\miMCoups\src\main\AndroidManifest.xml:81:13-53
	android:name
		ADDED from C:\Users\MaltiDevnani\AndroidStudioProjects\MiMCoups_Live\miMCoups\src\main\AndroidManifest.xml:79:13-68
activity#com.mimcoups.Consumer.instragramSharing.InstaActivity
ADDED from C:\Users\MaltiDevnani\AndroidStudioProjects\MiMCoups_Live\miMCoups\src\main\AndroidManifest.xml:89:9-92:65
	android:screenOrientation
		ADDED from C:\Users\MaltiDevnani\AndroidStudioProjects\MiMCoups_Live\miMCoups\src\main\AndroidManifest.xml:91:13-49
	android:theme
		ADDED from C:\Users\MaltiDevnani\AndroidStudioProjects\MiMCoups_Live\miMCoups\src\main\AndroidManifest.xml:92:13-53
	android:name
		ADDED from C:\Users\MaltiDevnani\AndroidStudioProjects\MiMCoups_Live\miMCoups\src\main\AndroidManifest.xml:90:13-69
activity#com.mimcoups.Consumer.UserProfileActivity
ADDED from C:\Users\MaltiDevnani\AndroidStudioProjects\MiMCoups_Live\miMCoups\src\main\AndroidManifest.xml:93:9-96:55
	android:screenOrientation
		ADDED from C:\Users\MaltiDevnani\AndroidStudioProjects\MiMCoups_Live\miMCoups\src\main\AndroidManifest.xml:95:13-49
	android:windowSoftInputMode
		ADDED from C:\Users\MaltiDevnani\AndroidStudioProjects\MiMCoups_Live\miMCoups\src\main\AndroidManifest.xml:96:13-52
	android:name
		ADDED from C:\Users\MaltiDevnani\AndroidStudioProjects\MiMCoups_Live\miMCoups\src\main\AndroidManifest.xml:94:13-57
activity#com.mimcoups.Consumer.FacebookShare
ADDED from C:\Users\MaltiDevnani\AndroidStudioProjects\MiMCoups_Live\miMCoups\src\main\AndroidManifest.xml:97:9-101:56
	android:screenOrientation
		ADDED from C:\Users\MaltiDevnani\AndroidStudioProjects\MiMCoups_Live\miMCoups\src\main\AndroidManifest.xml:100:13-49
	android:label
		ADDED from C:\Users\MaltiDevnani\AndroidStudioProjects\MiMCoups_Live\miMCoups\src\main\AndroidManifest.xml:99:13-45
	android:theme
		ADDED from C:\Users\MaltiDevnani\AndroidStudioProjects\MiMCoups_Live\miMCoups\src\main\AndroidManifest.xml:101:13-53
	android:name
		ADDED from C:\Users\MaltiDevnani\AndroidStudioProjects\MiMCoups_Live\miMCoups\src\main\AndroidManifest.xml:98:13-51
activity#com.facebook.LoginActivity
ADDED from C:\Users\MaltiDevnani\AndroidStudioProjects\MiMCoups_Live\miMCoups\src\main\AndroidManifest.xml:109:9-111:57
	android:label
		ADDED from C:\Users\MaltiDevnani\AndroidStudioProjects\MiMCoups_Live\miMCoups\src\main\AndroidManifest.xml:111:13-45
	android:name
		ADDED from C:\Users\MaltiDevnani\AndroidStudioProjects\MiMCoups_Live\miMCoups\src\main\AndroidManifest.xml:110:13-54
meta-data#com.facebook.sdk.ApplicationId
ADDED from C:\Users\MaltiDevnani\AndroidStudioProjects\MiMCoups_Live\miMCoups\src\main\AndroidManifest.xml:113:9-115:50
	android:value
		ADDED from C:\Users\MaltiDevnani\AndroidStudioProjects\MiMCoups_Live\miMCoups\src\main\AndroidManifest.xml:115:13-47
	android:name
		ADDED from C:\Users\MaltiDevnani\AndroidStudioProjects\MiMCoups_Live\miMCoups\src\main\AndroidManifest.xml:114:13-58
meta-data#com.google.android.maps.v2.API_KEY
ADDED from C:\Users\MaltiDevnani\AndroidStudioProjects\MiMCoups_Live\miMCoups\src\main\AndroidManifest.xml:118:9-120:71
	android:value
		ADDED from C:\Users\MaltiDevnani\AndroidStudioProjects\MiMCoups_Live\miMCoups\src\main\AndroidManifest.xml:120:13-68
	android:name
		ADDED from C:\Users\MaltiDevnani\AndroidStudioProjects\MiMCoups_Live\miMCoups\src\main\AndroidManifest.xml:119:13-62
meta-data#com.google.android.gms.version
ADDED from C:\Users\MaltiDevnani\AndroidStudioProjects\MiMCoups_Live\miMCoups\src\main\AndroidManifest.xml:130:9-132:69
	android:value
		ADDED from C:\Users\MaltiDevnani\AndroidStudioProjects\MiMCoups_Live\miMCoups\src\main\AndroidManifest.xml:132:13-66
	android:name
		ADDED from C:\Users\MaltiDevnani\AndroidStudioProjects\MiMCoups_Live\miMCoups\src\main\AndroidManifest.xml:131:13-58
activity#com.mimcoups.Consumer.SignInActivity
ADDED from C:\Users\MaltiDevnani\AndroidStudioProjects\MiMCoups_Live\miMCoups\src\main\AndroidManifest.xml:139:9-147:20
	android:screenOrientation
		ADDED from C:\Users\MaltiDevnani\AndroidStudioProjects\MiMCoups_Live\miMCoups\src\main\AndroidManifest.xml:142:13-49
	android:exported
		ADDED from C:\Users\MaltiDevnani\AndroidStudioProjects\MiMCoups_Live\miMCoups\src\main\AndroidManifest.xml:141:13-37
	android:theme
		ADDED from C:\Users\MaltiDevnani\AndroidStudioProjects\MiMCoups_Live\miMCoups\src\main\AndroidManifest.xml:143:13-53
	android:name
		ADDED from C:\Users\MaltiDevnani\AndroidStudioProjects\MiMCoups_Live\miMCoups\src\main\AndroidManifest.xml:140:13-52
intent-filter#android.intent.action.MAIN
ADDED from C:\Users\MaltiDevnani\AndroidStudioProjects\MiMCoups_Live\miMCoups\src\main\AndroidManifest.xml:144:13-146:29
activity#com.mimcoups.Consumer.twitter.PrepareRequestTokenActivity
ADDED from C:\Users\MaltiDevnani\AndroidStudioProjects\MiMCoups_Live\miMCoups\src\main\AndroidManifest.xml:155:9-170:20
	android:screenOrientation
		ADDED from C:\Users\MaltiDevnani\AndroidStudioProjects\MiMCoups_Live\miMCoups\src\main\AndroidManifest.xml:158:13-49
	android:launchMode
		ADDED from C:\Users\MaltiDevnani\AndroidStudioProjects\MiMCoups_Live\miMCoups\src\main\AndroidManifest.xml:157:13-44
	android:theme
		ADDED from C:\Users\MaltiDevnani\AndroidStudioProjects\MiMCoups_Live\miMCoups\src\main\AndroidManifest.xml:159:13-53
	android:name
		ADDED from C:\Users\MaltiDevnani\AndroidStudioProjects\MiMCoups_Live\miMCoups\src\main\AndroidManifest.xml:156:13-73
intent-filter#android.intent.action.VIEW+android.intent.category.BROWSABLE+android.intent.category.DEFAULT
ADDED from C:\Users\MaltiDevnani\AndroidStudioProjects\MiMCoups_Live\miMCoups\src\main\AndroidManifest.xml:160:13-169:29
action#android.intent.action.VIEW
ADDED from C:\Users\MaltiDevnani\AndroidStudioProjects\MiMCoups_Live\miMCoups\src\main\AndroidManifest.xml:161:17-69
	android:name
		ADDED from C:\Users\MaltiDevnani\AndroidStudioProjects\MiMCoups_Live\miMCoups\src\main\AndroidManifest.xml:161:25-66
category#android.intent.category.DEFAULT
ADDED from C:\Users\MaltiDevnani\AndroidStudioProjects\MiMCoups_Live\miMCoups\src\main\AndroidManifest.xml:163:17-76
	android:name
		ADDED from C:\Users\MaltiDevnani\AndroidStudioProjects\MiMCoups_Live\miMCoups\src\main\AndroidManifest.xml:163:27-73
category#android.intent.category.BROWSABLE
ADDED from C:\Users\MaltiDevnani\AndroidStudioProjects\MiMCoups_Live\miMCoups\src\main\AndroidManifest.xml:164:17-78
	android:name
		ADDED from C:\Users\MaltiDevnani\AndroidStudioProjects\MiMCoups_Live\miMCoups\src\main\AndroidManifest.xml:164:27-75
data
ADDED from C:\Users\MaltiDevnani\AndroidStudioProjects\MiMCoups_Live\miMCoups\src\main\AndroidManifest.xml:166:17-168:60
	android:host
		ADDED from C:\Users\MaltiDevnani\AndroidStudioProjects\MiMCoups_Live\miMCoups\src\main\AndroidManifest.xml:167:21-44
	android:scheme
		ADDED from C:\Users\MaltiDevnani\AndroidStudioProjects\MiMCoups_Live\miMCoups\src\main\AndroidManifest.xml:168:21-57
receiver#com.google.android.gcm.GCMBroadcastReceiver
ADDED from C:\Users\MaltiDevnani\AndroidStudioProjects\MiMCoups_Live\miMCoups\src\main\AndroidManifest.xml:172:9-184:20
	android:permission
		ADDED from C:\Users\MaltiDevnani\AndroidStudioProjects\MiMCoups_Live\miMCoups\src\main\AndroidManifest.xml:174:13-73
	android:name
		ADDED from C:\Users\MaltiDevnani\AndroidStudioProjects\MiMCoups_Live\miMCoups\src\main\AndroidManifest.xml:173:13-71
intent-filter#com.android.Service+com.google.android.c2dm.intent.RECEIVE+com.google.android.c2dm.intent.REGISTRATION
ADDED from C:\Users\MaltiDevnani\AndroidStudioProjects\MiMCoups_Live\miMCoups\src\main\AndroidManifest.xml:175:13-183:29
action#com.google.android.c2dm.intent.RECEIVE
ADDED from C:\Users\MaltiDevnani\AndroidStudioProjects\MiMCoups_Live\miMCoups\src\main\AndroidManifest.xml:178:17-81
	android:name
		ADDED from C:\Users\MaltiDevnani\AndroidStudioProjects\MiMCoups_Live\miMCoups\src\main\AndroidManifest.xml:178:25-78
action#com.google.android.c2dm.intent.REGISTRATION
ADDED from C:\Users\MaltiDevnani\AndroidStudioProjects\MiMCoups_Live\miMCoups\src\main\AndroidManifest.xml:180:17-86
	android:name
		ADDED from C:\Users\MaltiDevnani\AndroidStudioProjects\MiMCoups_Live\miMCoups\src\main\AndroidManifest.xml:180:25-83
category#com.android.Service
ADDED from C:\Users\MaltiDevnani\AndroidStudioProjects\MiMCoups_Live\miMCoups\src\main\AndroidManifest.xml:182:17-64
	android:name
		ADDED from C:\Users\MaltiDevnani\AndroidStudioProjects\MiMCoups_Live\miMCoups\src\main\AndroidManifest.xml:182:27-61
receiver#com.mimcoups.myReceiver
ADDED from C:\Users\MaltiDevnani\AndroidStudioProjects\MiMCoups_Live\miMCoups\src\main\AndroidManifest.xml:185:9-189:20
	android:name
		ADDED from C:\Users\MaltiDevnani\AndroidStudioProjects\MiMCoups_Live\miMCoups\src\main\AndroidManifest.xml:185:19-45
intent-filter#com.android.smackchat.android.action.broadcast
ADDED from C:\Users\MaltiDevnani\AndroidStudioProjects\MiMCoups_Live\miMCoups\src\main\AndroidManifest.xml:186:13-188:29
action#com.android.smackchat.android.action.broadcast
ADDED from C:\Users\MaltiDevnani\AndroidStudioProjects\MiMCoups_Live\miMCoups\src\main\AndroidManifest.xml:187:17-89
	android:name
		ADDED from C:\Users\MaltiDevnani\AndroidStudioProjects\MiMCoups_Live\miMCoups\src\main\AndroidManifest.xml:187:25-86
service#com.paypal.android.sdk.payments.PayPalService
ADDED from C:\Users\MaltiDevnani\AndroidStudioProjects\MiMCoups_Live\miMCoups\src\main\AndroidManifest.xml:191:9-193:40
	android:exported
		ADDED from C:\Users\MaltiDevnani\AndroidStudioProjects\MiMCoups_Live\miMCoups\src\main\AndroidManifest.xml:193:13-37
	android:name
		ADDED from C:\Users\MaltiDevnani\AndroidStudioProjects\MiMCoups_Live\miMCoups\src\main\AndroidManifest.xml:192:13-73
activity#io.card.payment.CardIOActivity
ADDED from C:\Users\MaltiDevnani\AndroidStudioProjects\MiMCoups_Live\miMCoups\src\main\AndroidManifest.xml:195:9-197:66
	android:configChanges
		ADDED from C:\Users\MaltiDevnani\AndroidStudioProjects\MiMCoups_Live\miMCoups\src\main\AndroidManifest.xml:197:13-63
	android:name
		ADDED from C:\Users\MaltiDevnani\AndroidStudioProjects\MiMCoups_Live\miMCoups\src\main\AndroidManifest.xml:196:13-58
activity#io.card.payment.DataEntryActivity
ADDED from C:\Users\MaltiDevnani\AndroidStudioProjects\MiMCoups_Live\miMCoups\src\main\AndroidManifest.xml:198:9-70
	android:name
		ADDED from C:\Users\MaltiDevnani\AndroidStudioProjects\MiMCoups_Live\miMCoups\src\main\AndroidManifest.xml:198:19-67
service#com.mimcoups.Consumer.Service.FusedLocationService
ADDED from C:\Users\MaltiDevnani\AndroidStudioProjects\MiMCoups_Live\miMCoups\src\main\AndroidManifest.xml:200:9-202:46
	android:enabled
		ADDED from C:\Users\MaltiDevnani\AndroidStudioProjects\MiMCoups_Live\miMCoups\src\main\AndroidManifest.xml:202:13-35
	android:name
		ADDED from C:\Users\MaltiDevnani\AndroidStudioProjects\MiMCoups_Live\miMCoups\src\main\AndroidManifest.xml:201:13-66
service#com.mimcoups.Consumer.smackchat.Connector
ADDED from C:\Users\MaltiDevnani\AndroidStudioProjects\MiMCoups_Live\miMCoups\src\main\AndroidManifest.xml:203:9-205:40
	android:exported
		ADDED from C:\Users\MaltiDevnani\AndroidStudioProjects\MiMCoups_Live\miMCoups\src\main\AndroidManifest.xml:205:13-37
	android:name
		ADDED from C:\Users\MaltiDevnani\AndroidStudioProjects\MiMCoups_Live\miMCoups\src\main\AndroidManifest.xml:204:13-57
service#com.mimcoups.Consumer.GCMIntentService
ADDED from C:\Users\MaltiDevnani\AndroidStudioProjects\MiMCoups_Live\miMCoups\src\main\AndroidManifest.xml:206:9-62
	android:name
		ADDED from C:\Users\MaltiDevnani\AndroidStudioProjects\MiMCoups_Live\miMCoups\src\main\AndroidManifest.xml:206:18-59
activity#com.mimcoups.Merchant.MerchantActivity
ADDED from C:\Users\MaltiDevnani\AndroidStudioProjects\MiMCoups_Live\miMCoups\src\main\AndroidManifest.xml:208:9-209:46
	android:theme
		ADDED from C:\Users\MaltiDevnani\AndroidStudioProjects\MiMCoups_Live\miMCoups\src\main\AndroidManifest.xml:209:13-44
	android:name
		ADDED from C:\Users\MaltiDevnani\AndroidStudioProjects\MiMCoups_Live\miMCoups\src\main\AndroidManifest.xml:208:19-60
